{
  "$schema": "http://json-schema.org/draft-04/schema#",
  "type": "object",
  "properties": {
    "initial_timestamp": {
      "format": "date-time",
      "type": "string"
    },
    },
    "initial_sample": {
      "type": "integer",
      "minimum": 0
    },
  },
  "required": [
    "ID",
    "App_ID",
    "App_Label",
    "Position",
    "Timestamp",
    "Delta_P",
    "Delta_Q",
    "Type"
  ]
}